<?xml version="1.0" encoding="UTF-8" standalone="no"?>
<svg width="50px" height="50px" viewBox="0 0 50 50" version="1.1" xmlns="http://www.w3.org/2000/svg" xmlns:xlink="http://www.w3.org/1999/xlink" xmlns:sketch="http://www.bohemiancoding.com/sketch/ns">
    <!-- Generator: Sketch 3.2.2 (9983) - http://www.bohemiancoding.com/sketch -->
    <title>Mobile</title>
    <desc>Created with Sketch.</desc>
    <defs></defs>
    <g id="Transfers" stroke="none" stroke-width="1" fill="none" fill-rule="evenodd" sketch:type="MSPage">
        <g sketch:type="MSArtboardGroup" transform="translate(-766.000000, -568.000000)" id="PhoneTop">
            <g sketch:type="MSLayerGroup" transform="translate(766.000000, 568.000000)">
                <g id="Mobile" sketch:type="MSShapeGroup">
                    <circle id="Oval-2" fill="#FF5722" cx="25" cy="25" r="25"></circle>
                    <g id="noun_100250_cc" transform="translate(24.500000, 25.500000) rotate(19.000000) translate(-24.500000, -25.500000) translate(16.000000, 10.000000)" fill="#FFFFFF">
                        <path d="M14.4333333,1.86517468e-14 L2.23333333,1.86517468e-14 C1,1.86517468e-14 4.61852778e-14,1.02197802 4.61852778e-14,2.28241758 L4.61852778e-14,28.410989 C4.61852778e-14,29.6714286 1,30.6934066 2.23333333,30.6934066 L14.4666667,30.6934066 C15.7,30.6934066 16.7,29.6714286 16.7,28.410989 L16.7,2.28241758 C16.6666667,1.02197802 15.6666667,1.86517468e-14 14.4333333,1.86517468e-14 L14.4333333,1.86517468e-14 Z M6.1,1.97582418 L10.5333333,1.97582418 C10.7,1.97582418 10.8,2.11208791 10.8,2.24835165 C10.8,2.41868132 10.6666667,2.52087912 10.5333333,2.52087912 L6.1,2.52087912 C5.93333333,2.52087912 5.83333333,2.38461538 5.83333333,2.24835165 C5.83333333,2.11208791 5.96666667,1.97582418 6.1,1.97582418 L6.1,1.97582418 Z M8.33333333,29.5351648 C7.73333333,29.5351648 7.23333333,29.0241758 7.23333333,28.410989 C7.23333333,27.7978022 7.73333333,27.2868132 8.33333333,27.2868132 C8.93333333,27.2868132 9.43333333,27.7978022 9.43333333,28.410989 C9.43333333,29.0241758 8.93333333,29.5351648 8.33333333,29.5351648 L8.33333333,29.5351648 Z M15.5666667,26.1285714 L1.1,26.1285714 L1.1,4.53076923 L15.5333333,4.53076923 L15.5333333,26.1285714 L15.5666667,26.1285714 Z" id="Shape"></path>
                    </g>
                </g>
            </g>
        </g>
    </g>
</svg>